<?xml version='1.0' encoding='utf-8'?>
<!DOCTYPE svg PUBLIC '-//W3C//DTD SVG 1.1//EN' 'http://www.w3.org/Graphics/SVG/1.1/DTD/svg11.dtd'>
<svg version='1.1' xmlns='http://www.w3.org/2000/svg' xmlns:xlink='http://www.w3.org/1999/xlink'
     viewBox='-3610.5 -3610.5 7221.0 3661.0'>
	<g >
		<g transform='scale(1,-1)'>
			<rect x='-3600' y='-40' width='7200' height='3640' fill='none' stroke='black' />
			<path fill='#91070f'  d='M -675.8002790327444 8.276166485803385e-14 A 675.8002790327444 675.8002790327444 0 0 0 -675.422513933325 22.593025754033523 L -99.94410107377286 3.343151291143345 A 100 100 0 0 1 -100.0 1.2246467991473532e-14 Z'>
				<title>COM (×2.55)</title>
			</path>
			<path fill='#c84529'  d='M -584.2143956134049 19.54209493122368 A 584.5411478384024 584.5411478384024 0 0 0 -570.9354849827553 125.38351368398854 L -97.67241999883841 21.449903765996485 A 100 100 0 0 1 -99.94410107377286 3.343151291143345 Z'>
				<title>FI (×1.90)</title>
			</path>
			<path fill='#e4758f'  d='M -417.8852802575192 91.77205854894206 A 427.84368428926916 427.84368428926916 0 0 0 -384.7699469113934 187.08903265562986 L -89.93236573085575 43.72836143799127 A 100 100 0 0 1 -97.67241999883841 21.449903765996485 Z'>
				<title>SOC (×0.99)</title>
			</path>
			<path fill='#b94e97'  d='M -525.7618100441586 255.64436421820236 A 584.61912546327 584.61912546327 0 0 0 -523.7579871843791 259.7250329059685 L -89.58960875071223 44.42636608923022 A 100 100 0 0 1 -89.93236573085575 43.72836143799127 Z'>
				<title>RDG (×1.90)</title>
			</path>
			<path fill='#fadceb'  d='M -310.0486546730458 153.74924871371925 A 346.0765807514266 346.0765807514266 0 0 0 -296.7532784716017 178.06316705302854 L -85.74786477237765 51.45195513270643 A 100 100 0 0 1 -89.58960875071223 44.42636608923022 Z'>
				<title>DVG (×0.63)</title>
			</path>
			<path fill='#92bc1e'  d='M -752.2171375045258 451.3586724482883 A 877.2429954977035 877.2429954977035 0 0 0 -737.8160842074066 474.53419163916215 L -84.10623829362204 54.09381369525046 A 100 100 0 0 1 -85.74786477237765 51.45195513270643 Z'>
				<title>ECO (×4.34)</title>
			</path>
			<path fill='#cccccc'  d='M -747.8799048069047 481.00684393721355 A 889.2086009078093 889.2086009078093 0 0 0 -740.3089306801045 492.579560156229 L -83.25480994271868 55.3952761650467 A 100 100 0 0 1 -84.10623829362204 54.09381369525046 Z'>
				<title>DIV (×4.46)</title>
			</path>
			<path fill='#ede8c9'  d='M -364.7511194481813 242.6945543115624 A 438.1141698589414 438.1141698589414 0 0 0 -358.0114867128599 252.53079260327266 L -81.71648199101344 57.64040745008987 A 100 100 0 0 1 -83.25480994271868 55.3952761650467 Z'>
				<title>REG (×1.04)</title>
			</path>
			<path fill='#e5c047'  d='M -272.9995921044399 192.56589783611534 A 334.08143064022545 334.08143064022545 0 0 0 180.280170701552 281.2640438279288 L 53.962942614340314 84.19026561545826 A 100 100 0 0 1 -81.71648199101344 57.64040745008987 Z'>
				<title>REM (×0.58)</title>
			</path>
			<path fill='#e5c047'  d='M 221.25845217000256 345.19629500166394 A 410.01924923049785 410.01924923049785 0 0 0 268.2206184828453 310.11850083511797 L 65.41659177861219 75.63510772168179 A 100 100 0 0 1 53.962942614340314 84.19026561545826 Z'>
				<title>MDM (×0.90)</title>
			</path>
			<path fill='#b3daf2'  d='M 358.19800965682333 414.15097163382995 A 547.564463261957 547.564463261957 0 0 0 381.42388319719925 392.8646875886459 L 69.65826104290565 71.74765967248278 A 100 100 0 0 1 65.41659177861219 75.63510772168179 Z'>
				<title>UDI (×1.66)</title>
			</path>
			<path fill='#478cb2'  d='M 280.1345949625028 288.53722847715903 A 402.1555961466728 402.1555961466728 0 0 0 391.6914607959091 91.1423230538514 L 97.3979883778747 22.663447662334725 A 100 100 0 0 1 69.65826104290565 71.74765967248278 Z'>
				<title>LR (×0.87)</title>
			</path>
			<path fill='#a4becd'  d='M 641.8380447386754 149.34869987453058 A 658.9849086497949 658.9849086497949 0 0 0 646.7686157261587 126.29911931540549 L 98.14619534327935 19.165707386862906 A 100 100 0 0 1 97.3979883778747 22.663447662334725 Z'>
				<title>DVD (×2.42)</title>
			</path>
			<path fill='#443859'  d='M 898.6317873692661 175.48223672872422 A 915.6053214555919 915.6053214555919 0 0 0 899.9691921867679 168.48904353842786 L 98.29226317252434 18.401929258184175 A 100 100 0 0 1 98.14619534327935 19.165707386862906 Z'>
				<title>DLF (×4.73)</title>
			</path>
			<path fill='#7f6659'  d='M 623.3088456142679 116.69367367054822 A 634.1382581864302 634.1382581864302 0 0 0 634.1382581864302 -1.408069790068534e-13 L 100.0 -2.220446049250313e-14 A 100 100 0 0 1 98.29226317252434 18.401929258184175 Z'>
				<title>FN (×2.24)</title>
			</path>
			<g >
				<text text-anchor='end' transform='translate(-231.8404623873926,-20) scale(1,-1)'>
					14018
				</text>
				<path fill='none' stroke='black' stroke-width='1'  d='M -231.8404623873926 0.0 A 231.8404623873926 231.8404623873926 0 0 0 231.8404623873926 0'/>
				<text transform='translate(231.8404623873926,-20) scale(1,-1)'>
					14018
				</text>
				<text text-anchor='end' transform='translate(-312.2498999199199,-20) scale(1,-1)'>
					28037
				</text>
				<path fill='none' stroke='black' stroke-width='1'  d='M -312.2498999199199 0.0 A 312.2498999199199 312.2498999199199 0 0 0 312.2498999199199 0'/>
				<text transform='translate(312.2498999199199,-20) scale(1,-1)'>
					28037
				</text>
				<text text-anchor='end' transform='translate(-430.11626335213134,-20) scale(1,-1)'>
					56074
				</text>
				<path fill='none' stroke='black' stroke-width='3'  d='M -430.11626335213134 0.0 A 430.11626335213134 430.11626335213134 0 0 0 430.11626335213134 0'/>
				<text transform='translate(430.11626335213134,-20) scale(1,-1)'>
					56074
				</text>
				<text text-anchor='end' transform='translate(-600.0,-20) scale(1,-1)'>
					112149
				</text>
				<path fill='none' stroke='black' stroke-width='1'  d='M -600.0 0.0 A 600.0 600.0 0 0 0 600.0 0'/>
				<text transform='translate(600.0,-20) scale(1,-1)'>
					112149
				</text>
				<text text-anchor='end' transform='translate(-842.6149773176359,-20) scale(1,-1)'>
					224298
				</text>
				<path fill='none' stroke='black' stroke-width='1'  d='M -842.6149773176359 0.0 A 842.6149773176359 842.6149773176359 0 0 0 842.6149773176359 0'/>
				<text transform='translate(842.6149773176359,-20) scale(1,-1)'>
					224298
				</text>
			</g>
		</g>
	</g>
</svg>
