<?xml version='1.0' encoding='utf-8'?>
<!DOCTYPE svg PUBLIC '-//W3C//DTD SVG 1.1//EN' 'http://www.w3.org/Graphics/SVG/1.1/DTD/svg11.dtd'>
<svg version='1.1' xmlns='http://www.w3.org/2000/svg' xmlns:xlink='http://www.w3.org/1999/xlink'
     viewBox='-3610.5 -3610.5 7221.0 3661.0'>
	<g >
		<g transform='scale(1,-1)'>
			<rect x='-3600' y='-40' width='7200' height='3640' fill='none' stroke='black' />
			<path fill='#91070f'  d='M -745.8340482556475 9.133832798913913e-14 A 745.8340482556475 745.8340482556475 0 0 0 -745.8114531078121 5.805510367007405 L -99.99697048587574 0.7783917053110273 A 100 100 0 0 1 -100.0 1.2246467991473532e-14 Z'>
				<title>EXG (×3.12)</title>
			</path>
			<path fill='#91070f'  d='M -428.85265087200736 3.338254595288632 A 428.8656434172488 428.8656434172488 0 0 0 -426.9857884087496 40.11080403892855 L -99.56166808011938 9.352766922367861 A 100 100 0 0 1 -99.99697048587574 0.7783917053110273 Z'>
				<title>COM (×0.99)</title>
			</path>
			<path fill='#c84529'  d='M -785.7410357802399 73.81206955149358 A 789.2003528385418 789.2003528385418 0 0 0 -774.6124327422406 151.03898821703842 L -98.15155682028875 19.138231207549733 A 100 100 0 0 1 -99.56166808011938 9.352766922367861 Z'>
				<title>FI (×3.50)</title>
			</path>
			<path fill='#e4758f'  d='M -502.9184278324344 98.06231772785273 A 512.3896595478932 512.3896595478932 0 0 0 -480.51926595150326 177.8887243785687 L -93.7800474692423 34.717469617854654 A 100 100 0 0 1 -98.15155682028875 19.138231207549733 Z'>
				<title>SOC (×1.44)</title>
			</path>
			<path fill='#b94e97'  d='M -363.41285576132856 134.53581139175398 A 387.5161780873694 387.5161780873694 0 0 0 -360.87512854330697 141.20173468585102 L -93.12517746341523 36.437636070516696 A 100 100 0 0 1 -93.7800474692423 34.717469617854654 Z'>
				<title>RDG (×0.80)</title>
			</path>
			<path fill='#fadceb'  d='M -406.7286319291924 159.1431047260797 A 436.7547456099916 436.7547456099916 0 0 0 -398.50988350166375 178.7304690430225 L -91.24340090342618 40.922387412963175 A 100 100 0 0 1 -93.12517746341523 36.437636070516696 Z'>
				<title>DVG (×1.03)</title>
			</path>
			<path fill='#92bc1e'  d='M -544.3497889631045 244.1392224703501 A 596.5908587068725 596.5908587068725 0 0 0 -526.4192800357541 280.71942273245327 L -88.23790581987507 47.053926260439276 A 100 100 0 0 1 -91.24340090342618 40.922387412963175 Z'>
				<title>ECO (×1.98)</title>
			</path>
			<path fill='#cccccc'  d='M -483.17237946867544 257.65749201947943 A 547.5791554425623 547.5791554425623 0 0 0 -471.95825955515335 277.6658652280836 L -86.18996082378429 50.70789537334919 A 100 100 0 0 1 -88.23790581987507 47.053926260439276 Z'>
				<title>DIV (×1.66)</title>
			</path>
			<path fill='#ede8c9'  d='M -357.1078346619943 210.09624025779456 A 414.32648448710006 414.32648448710006 0 0 0 -350.50597066002007 220.9343800297191 L -84.5965642514781 53.32374064940998 A 100 100 0 0 1 -86.18996082378429 50.70789537334919 Z'>
				<title>REG (×0.92)</title>
			</path>
			<path fill='#e5c047'  d='M -278.21052490015137 175.3644016985321 A 328.86740420464577 328.86740420464577 0 0 0 177.9807973364551 276.5440386769918 L 54.119318321283735 84.08982925681062 A 100 100 0 0 1 -84.5965642514781 53.32374064940998 Z'>
				<title>REM (×0.56)</title>
			</path>
			<path fill='#e5c047'  d='M 185.07299590463927 287.56379622666265 A 341.97214903177155 341.97214903177155 0 0 0 241.3270868593672 242.29359847379297 L 70.56922253541362 70.85185128666201 A 100 100 0 0 1 54.119318321283735 84.08982925681062 Z'>
				<title>MDM (×0.61)</title>
			</path>
			<path fill='#b3daf2'  d='M 350.3596575254345 351.76284306350016 A 496.47657284252233 496.47657284252233 0 0 0 374.2754237196854 326.2006967817609 L 75.38632116653812 65.70313981063285 A 100 100 0 0 1 70.56922253541362 70.85185128666201 Z'>
				<title>UDI (×1.35)</title>
			</path>
			<path fill='#478cb2'  d='M 305.5275159124314 266.28328300625674 A 405.2824321238354 405.2824321238354 0 0 0 400.44391826833316 62.43811424215009 L 98.80613777652621 15.406074700783456 A 100 100 0 0 1 75.38632116653812 65.70313981063285 Z'>
				<title>LR (×0.88)</title>
			</path>
			<path fill='#a4becd'  d='M 483.1558968352231 75.33475152730708 A 488.99380919836784 488.99380919836784 0 0 0 487.0827357765022 43.1897434908791 L 99.60918249149236 8.832370201512822 A 100 100 0 0 1 98.80613777652621 15.406074700783456 Z'>
				<title>DVD (×1.31)</title>
			</path>
			<path fill='#443859'  d='M 912.026975550516 80.86965157570938 A 915.605321455592 915.605321455592 0 0 0 912.6282545602439 73.77515609011319 L 99.67485260017763 8.0575281031382 A 100 100 0 0 1 99.60918249149236 8.832370201512822 Z'>
				<title>DLF (×4.73)</title>
			</path>
			<path fill='#7f6659'  d='M 950.9597248921021 76.87380024534924 A 954.0618321319769 954.0618321319769 0 0 0 954.0618310935258 0.044513964978059345 L 99.99999989115474 0.004665731662127917 A 100 100 0 0 1 99.67485260017763 8.0575281031382 Z'>
				<title>FN (×5.14)</title>
			</path>
			<g >
				<text text-anchor='end' transform='translate(-231.8404623873926,-20) scale(1,-1)'>
					14018
				</text>
				<path fill='none' stroke='black' stroke-width='1'  d='M -231.8404623873926 0.0 A 231.8404623873926 231.8404623873926 0 0 0 231.8404623873926 0'/>
				<text transform='translate(231.8404623873926,-20) scale(1,-1)'>
					14018
				</text>
				<text text-anchor='end' transform='translate(-312.2498999199199,-20) scale(1,-1)'>
					28037
				</text>
				<path fill='none' stroke='black' stroke-width='1'  d='M -312.2498999199199 0.0 A 312.2498999199199 312.2498999199199 0 0 0 312.2498999199199 0'/>
				<text transform='translate(312.2498999199199,-20) scale(1,-1)'>
					28037
				</text>
				<text text-anchor='end' transform='translate(-430.11626335213134,-20) scale(1,-1)'>
					56074
				</text>
				<path fill='none' stroke='black' stroke-width='3'  d='M -430.11626335213134 0.0 A 430.11626335213134 430.11626335213134 0 0 0 430.11626335213134 0'/>
				<text transform='translate(430.11626335213134,-20) scale(1,-1)'>
					56074
				</text>
				<text text-anchor='end' transform='translate(-600.0,-20) scale(1,-1)'>
					112149
				</text>
				<path fill='none' stroke='black' stroke-width='1'  d='M -600.0 0.0 A 600.0 600.0 0 0 0 600.0 0'/>
				<text transform='translate(600.0,-20) scale(1,-1)'>
					112149
				</text>
				<text text-anchor='end' transform='translate(-842.6149773176359,-20) scale(1,-1)'>
					224298
				</text>
				<path fill='none' stroke='black' stroke-width='1'  d='M -842.6149773176359 0.0 A 842.6149773176359 842.6149773176359 0 0 0 842.6149773176359 0'/>
				<text transform='translate(842.6149773176359,-20) scale(1,-1)'>
					224298
				</text>
			</g>
		</g>
	</g>
</svg>
