<?xml version='1.0' encoding='utf-8'?>
<!DOCTYPE svg PUBLIC '-//W3C//DTD SVG 1.1//EN' 'http://www.w3.org/Graphics/SVG/1.1/DTD/svg11.dtd'>
<svg version='1.1' xmlns='http://www.w3.org/2000/svg' xmlns:xlink='http://www.w3.org/1999/xlink'
     viewBox='-3610.5 -3610.5 7221.0 3661.0'>
	<g >
		<g transform='scale(1,-1)'>
			<rect x='-3600' y='-40' width='7200' height='3640' fill='none' stroke='black' />
			<path fill='#91070f'  d='M -806.5309181565004 9.877155073337342e-14 A 806.5309181565004 806.5309181565004 0 0 0 -806.3116067154996 18.80730757543847 L -99.97280805533133 2.331876826052324 A 100 100 0 0 1 -100.0 1.2246467991473532e-14 Z'>
				<title>COM (×3.66)</title>
			</path>
			<path fill='#c84529'  d='M -641.9358818901084 14.973225579124644 A 642.1104842176885 642.1104842176885 0 0 0 -632.4163677359672 111.15489985565318 L -98.49027282375991 17.310868236496418 A 100 100 0 0 1 -99.97280805533133 2.331876826052324 Z'>
				<title>FI (×2.30)</title>
			</path>
			<path fill='#e4758f'  d='M -456.41852938553063 80.2211304361657 A 463.41482899763446 463.41482899763446 0 0 0 -431.41786546904177 169.2097192511191 L -93.09539498384157 36.51366090660488 A 100 100 0 0 1 -98.49027282375991 17.310868236496418 Z'>
				<title>SOC (×1.17)</title>
			</path>
			<path fill='#b94e97'  d='M -545.0477830862062 213.77738322030612 A 585.4723353188515 585.4723353188515 0 0 0 -543.3740263886455 217.99661206060375 L -92.80951355160461 37.23431474211016 A 100 100 0 0 1 -93.09539498384157 36.51366090660488 Z'>
				<title>RDG (×1.90)</title>
			</path>
			<path fill='#fadceb'  d='M -318.66785346623396 127.84658274883559 A 343.35688365508565 343.35688365508565 0 0 0 -307.20413104508606 153.36091882277447 L -89.47079428693897 44.665165058065654 A 100 100 0 0 1 -92.80951355160461 37.23431474211016 Z'>
				<title>DVG (×0.62)</title>
			</path>
			<path fill='#92bc1e'  d='M -784.8762758983315 391.82203189936865 A 877.2429954977034 877.2429954977034 0 0 0 -772.311006118723 416.0420447234505 L -88.0384351978271 47.426089106292515 A 100 100 0 0 1 -89.47079428693897 44.665165058065654 Z'>
				<title>ECO (×4.34)</title>
			</path>
			<path fill='#cccccc'  d='M -782.8453378837265 421.7168634073546 A 889.2086009078091 889.2086009078091 0 0 0 -776.1922017774042 433.8405258022454 L -87.29022649859387 48.78951073565075 A 100 100 0 0 1 -88.0384351978271 47.426089106292515 Z'>
				<title>DIV (×4.46)</title>
			</path>
			<path fill='#ede8c9'  d='M -360.976921549406 201.76242055621893 A 413.53647026591324 413.53647026591324 0 0 0 -354.60200239803714 212.76708423835916 L -85.74866496539472 51.450621538058094 A 100 100 0 0 1 -87.29022649859387 48.78951073565075 Z'>
				<title>REG (×0.92)</title>
			</path>
			<path fill='#e5c047'  d='M -280.68937697091746 168.41828278157047 A 327.3396467270881 327.3396467270881 0 0 0 175.5864429198084 276.2619144619535 L 53.640444924839656 84.39610576481147 A 100 100 0 0 1 -85.74866496539472 51.450621538058094 Z'>
				<title>REM (×0.56)</title>
			</path>
			<path fill='#e5c047'  d='M 224.38991496605988 353.04768673279693 A 418.32224784949545 418.32224784949545 0 0 0 270.54146861689884 319.0624026808333 L 64.67298117843224 76.27191819729035 A 100 100 0 0 1 53.640444924839656 84.39610576481147 Z'>
				<title>MDM (×0.94)</title>
			</path>
			<path fill='#b3daf2'  d='M 314.9905097486339 371.4832678918265 A 487.0511672866566 487.0511672866566 0 0 0 341.3846783476408 347.38356458642744 L 70.0921589510773 71.3238336993807 A 100 100 0 0 1 64.67298117843224 76.27191819729035 Z'>
				<title>UDI (×1.30)</title>
			</path>
			<path fill='#478cb2'  d='M 289.8887655256195 294.98275432062815 A 413.58230344703054 413.58230344703054 0 0 0 400.14204242850997 104.5785236350762 L 96.75028140553844 25.28602475576426 A 100 100 0 0 1 70.0921589510773 71.3238336993807 Z'>
				<title>LR (×0.92)</title>
			</path>
			<path fill='#a4becd'  d='M 539.8219268063918 141.084350418741 A 557.9538570473759 557.9538570473759 0 0 0 546.2402949270545 113.72795079507999 L 97.90062171407719 20.383038733151608 A 100 100 0 0 1 96.75028140553844 25.28602475576426 Z'>
				<title>DVD (×1.72)</title>
			</path>
			<path fill='#443859'  d='M 896.3833021521995 186.6281873150906 A 915.6053214555919 915.6053214555919 0 0 0 897.8074474359548 179.6521416692077 L 98.05616310842943 19.621133414078905 A 100 100 0 0 1 97.90062171407719 20.383038733151608 Z'>
				<title>DLF (×4.73)</title>
			</path>
			<path fill='#7f6659'  d='M 602.4460432655333 120.55003800858297 A 614.3887586131175 614.3887586131175 0 0 0 614.3887586131175 -4.092651275298903e-13 L 100.0 -6.661338147750939e-14 A 100 100 0 0 1 98.05616310842943 19.621133414078905 Z'>
				<title>FN (×2.10)</title>
			</path>
			<g >
				<text text-anchor='end' transform='translate(-231.8404623873926,-20) scale(1,-1)'>
					14018
				</text>
				<path fill='none' stroke='black' stroke-width='1'  d='M -231.8404623873926 0.0 A 231.8404623873926 231.8404623873926 0 0 0 231.8404623873926 0'/>
				<text transform='translate(231.8404623873926,-20) scale(1,-1)'>
					14018
				</text>
				<text text-anchor='end' transform='translate(-312.2498999199199,-20) scale(1,-1)'>
					28037
				</text>
				<path fill='none' stroke='black' stroke-width='1'  d='M -312.2498999199199 0.0 A 312.2498999199199 312.2498999199199 0 0 0 312.2498999199199 0'/>
				<text transform='translate(312.2498999199199,-20) scale(1,-1)'>
					28037
				</text>
				<text text-anchor='end' transform='translate(-430.11626335213134,-20) scale(1,-1)'>
					56074
				</text>
				<path fill='none' stroke='black' stroke-width='3'  d='M -430.11626335213134 0.0 A 430.11626335213134 430.11626335213134 0 0 0 430.11626335213134 0'/>
				<text transform='translate(430.11626335213134,-20) scale(1,-1)'>
					56074
				</text>
				<text text-anchor='end' transform='translate(-600.0,-20) scale(1,-1)'>
					112149
				</text>
				<path fill='none' stroke='black' stroke-width='1'  d='M -600.0 0.0 A 600.0 600.0 0 0 0 600.0 0'/>
				<text transform='translate(600.0,-20) scale(1,-1)'>
					112149
				</text>
				<text text-anchor='end' transform='translate(-842.6149773176359,-20) scale(1,-1)'>
					224298
				</text>
				<path fill='none' stroke='black' stroke-width='1'  d='M -842.6149773176359 0.0 A 842.6149773176359 842.6149773176359 0 0 0 842.6149773176359 0'/>
				<text transform='translate(842.6149773176359,-20) scale(1,-1)'>
					224298
				</text>
			</g>
		</g>
	</g>
</svg>
